…
A model deployed via vetiver can be treated as a special `vetiver_endpoint()` object.

```{r}
library(vetiver)
endpoint <- vetiver_endpoint("http://127.0.0.1:8088/predict")
endpoint
```

If such a deployed model endpoint is running via one R process (either remotely on a server or locally, perhaps via a [background job in the RStudio IDE](https://docs.posit.co/ide/user/ide/guide/tools/jobs.html)), you can make predictions with that deployed model and new data in another, separate R process. 

``` r
data(bivariate, package = "modeldata")
predict(endpoint, bivariate_test)
#> # A tibble: 710 × 1
#>    .pred_class
#>    <chr>      
#>  1 One        
#>  2 Two        
#>  3 One        
#>  4 Two        
#>  5 Two        
#>  6 One        
#>  7 Two        
#>  8 Two        
#>  9 Two        
#> 10 One        
#> # … with 700 more rows
```
…
