Version, share, and deploy a model with vetiver • vetiver
…
#> The following objects are masked from 'package:stats':
#> 
#>     filter, lag
#> The following objects are masked from 'package:base':
#> 
#>     intersect, setdiff, setequal, union
#> 
#> Attaching package: 'recipes'
#> The following object is masked from 'package:stats':
#> 
#>     step
library(workflows)
data(bivariate, package = "modeldata")
bivariate_train
#> # A tibble: 1,009 × 3
#>        A     B Class
#>    <dbl> <dbl> <fct>
#>  1 3279. 155.  One  
#>  2 1727.  84.6 Two  
#>  3 1195. 101.  One  
#>  4 1027.  68.7 Two  
#>  5 1036.  73.4 One  
#>  6 1434.  79.5 One  
#>  7  633.  67.4 One  
#>  8 1262.  67.0 Two  
#>  9  985.  62.0 Two  
#> 10  893.  56.8 Two  
#> # … with 999 more rows
…
A model deployed via vetiver can be treated as a special vetiver_endpoint() object.

library(vetiver)
endpoint <- vetiver_endpoint("http://127.0.0.1:8088/predict")
endpoint
#> 
#> ── A model API endpoint for prediction: 
#> http://127.0.0.1:8088/predict

If such a deployed model endpoint is running via one R process (either remotely on a server or locally, perhaps via a background job in the RStudio IDE), you can make predictions with that deployed model and new data in another, separate R process.

data(bivariate, package = "modeldata")
predict(endpoint, bivariate_test)
#> # A tibble: 710 × 1
#>    .pred_class
#>    <chr>      
#>  1 One        
#>  2 Two        
#>  3 One        
#>  4 Two        
#>  5 Two        
#>  6 One        
#>  7 Two        
#>  8 Two        
#>  9 Two        
#> 10 One        
#> # … with 700 more rows
…
