…
#> The following objects are masked from 'package:stats':
#> 
#>     filter, lag
#> The following objects are masked from 'package:base':
#> 
#>     intersect, setdiff, setequal, union
#> 
#> Attaching package: 'recipes'
#> The following object is masked from 'package:stats':
#> 
#>     step
library(workflows)
data(bivariate, package = "modeldata")
bivariate_train
#> # A tibble: 1,009 × 3
#>        A     B Class
#>    <dbl> <dbl> <fct>
#>  1 3279. 155.  One  
#>  2 1727.  84.6 Two  
#>  3 1195. 101.  One  
#>  4 1027.  68.7 Two  
#>  5 1036.  73.4 One  
#>  6 1434.  79.5 One  
#>  7  633.  67.4 One  
#>  8 1262.  67.0 Two  
#>  9  985.  62.0 Two  
#> 10  893.  56.8 Two  
#> # ℹ 999 more rows
…
If such a deployed model endpoint is running via one R process (either
remotely on a server or locally, perhaps via a [background job in the
RStudio IDE](https://docs.posit.co/ide/user/ide/guide/tools/jobs.html)),
you can make predictions with that deployed model and new data in
another, separate R process.

``` r
data(bivariate, package = "modeldata")
predict(endpoint, bivariate_test)
#> # A tibble: 710 × 1
#>    .pred_class
#>    <chr>      
#>  1 One        
#>  2 Two        
#>  3 One        
#>  4 Two        
#>  5 Two        
#>  6 One        
#>  7 Two        
#>  8 Two        
#>  9 Two        
#> 10 One        
#> # … with 700 more rows
```
…
