Update model metrics over time for monitoring — vetiver_pin_metrics • vetiver
…
## to continue monitoring with new data, compute metrics and update pin:
new_metrics <-
    augment(lm_fit, new_data = monitoring) %>%
    vetiver_compute_metrics(date, "week", ridership, .pred, every = 4L)
vetiver_pin_metrics(b, new_metrics, "lm_fit_metrics")
#> Replacing version '20221021T195657Z-b3d15' with '20221021T195657Z-a5bef'
#> Writing to pin 'lm_fit_metrics'
#> # A tibble: 162 × 5
#>    .index        .n .metric .estimator .estimate
#>    <date>     <int> <chr>   <chr>          <dbl>
#>  1 2009-01-01     7 rmse    standard       6.78 
#>  2 2009-01-01     7 rsq     standard       0.154
#>  3 2009-01-01     7 mae     standard       5.25 
#>  4 2009-01-08    28 rmse    standard       4.61 
#>  5 2009-01-08    28 rsq     standard       0.576
#>  6 2009-01-08    28 mae     standard       2.98 
#>  7 2009-02-05    28 rmse    standard       1.90 
#>  8 2009-02-05    28 rsq     standard       0.916
#>  9 2009-02-05    28 mae     standard       1.17 
#> 10 2009-03-05    28 rmse    standard       1.24 
#> # … with 152 more rows
…
